Company Reputation Simulation Study – Anjali Suva
…
The poll surveyed 33,096 Americans in a nationally representative sample, asking for “nominations” for which companies were the most well-known. Poll respondents were asked which two companies have the best reputation and which two have the worst reputation. These nominations were aggregated into a single list, counting all associated brands and subsidiaries with their respective parent companies. From this master list, the 100 most nominated companies were placed on the “Most Visible” list.

The “ratings” phase of the survey involved online interviews where individuals were asked to rate two companies from the “Most Visible” list with which they indicated being very or somewhat familiar.

Through my preliminary observation of the data set, I noticed that the company with the best reputation in the data set was Trader Joe’s, a retail store. On the other end, a few companies with low scores included Facebook and Twitter, both part of the technology industry. Since there seemed to be more retail and technology companies in the data set compared to other sectors of the industry, I wanted to see if there was a significant difference in average reputation score between the two sectors.

To begin the permutation test, I started by importing the data set from TidyTuesday:

library(tidyverse)

companypoll <- readr::read_csv('https://raw.githubusercontent.com/rfordatascience/tidytuesday/main/data/2022/2022-05-31/poll.csv')

as_tibble(companypoll)

# A tibble: 500 × 8
   company      industry `2022_rank` `2022_rq` change  year  rank    rq
   <chr>        <chr>          <dbl>     <dbl>  <dbl> <dbl> <dbl> <dbl>
 1 Trader Joe's Retail             1      82.4     NA  2017    NA  NA  
 2 Trader Joe's Retail             1      82.4     NA  2018    NA  NA  
 3 Trader Joe's Retail             1      82.4     NA  2019    NA  78.2
 4 Trader Joe's Retail             1      82.4     NA  2020    NA  80.7
 5 Trader Joe's Retail             1      82.4     NA  2021    NA  NA  
 6 HEB Grocery  Retail             2      82       NA  2017    NA  NA  
 7 HEB Grocery  Retail             2      82       NA  2018    NA  81.1
 8 HEB Grocery  Retail             2      82       NA  2019    NA  82.5
 9 HEB Grocery  Retail             2      82       NA  2020    NA  83.1
10 HEB Grocery  Retail             2      82       NA  2021    NA  NA  
# ℹ 490 more rows

In the tibble above, the variable “2022_rq” refers to each company’s reputation score and the variable

“2022_rank” assigns each company a rank based on their position in the list—as determined by reputation score in descending order.

Because not all the columns in this data set are particularly useful for the simulation study I hope to conduct, I will initially attempt to clean it. I want to remove the rows for companies that aren’t in the retail or technology sectors and only look at data for 2022, which are the most recent entries.

company_poll_2022 <- companypoll |> 
  filter(industry == "Retail" | industry == "Tech") |>
  select(company, industry, `2022_rank`, `2022_rq`) |> 
  distinct()

as_tibble(company_poll_2022)

# A tibble: 37 × 4
   company        industry `2022_rank` `2022_rq`
   <chr>          <chr>          <dbl>     <dbl>
 1 Trader Joe's   Retail             1      82.4
 2 HEB Grocery    Retail             2      82  
 3 Patagonia      Retail             3      81.8
 4 Samsung        Tech               6      80.5
 5 Sony           Tech              10      79.6
 6 IBM            Tech              11      79.5
 7 Microsoft      Tech              15      79  
 8 The Home Depot Retail            16      78.9
 9 Apple          Tech              21      78.6
10 Netflix        Tech              22      78.5
# ℹ 27 more rows
…
