NYT Headlines – Anjali Suva
…
      October 6, 2025

For this project, I used a data set containing containing string data to see if any interesting patterns could be identified by isolating text within the data set. The data set I used had headlines from The New York Times from 1996 to 2005, compiled by Professor Amber E. Boydstun at UC Davis. The data can be accessed through the RTextTools R package.

Show the code

#load R packages + data
library(RTextTools) 
library(tidyverse)
source("R/theme_asuva.R")

data(NYTimes)
as_tibble(NYTimes)

# A tibble: 3,104 × 5
   Article_ID Date      Title                                 Subject Topic.Code
        <int> <fct>     <fct>                                 <fct>        <int>
 1      41246 1-Jan-96  Nation's Smaller Jails Struggle To C… Jails …         12
 2      41257 2-Jan-96  FEDERAL IMPASSE SADDLING STATES WITH… Federa…         20
 3      41268 3-Jan-96  Long, Costly Prelude Does Little To … Conten…         20
 4      41279 4-Jan-96  Top Leader of the Bosnian Serbs Now … Bosnia…         19
 5      41290 5-Jan-96  BATTLE OVER THE BUDGET: THE OVERVIEW… Battle…          1
 6      41302 7-Jan-96  South African Democracy Stumbles on … politi…         19
 7      41314 8-Jan-96  Among Economists, Little Fear on Def… econom…          1
 8      41333 10-Jan-96 BATTLE OVER THE BUDGET: THE OVERVIEW… budget…          1
 9      41344 11-Jan-96 High Court Is Cool To Census Change   census…         20
10      41355 12-Jan-96 TURMOIL AT BARNEYS: THE DIFFICULTIES… barney…         15
# ℹ 3,094 more rows
…
Show the code

#create df to extract key words in title 
KeyPhrasesinTitle <- NYTimes |>
  filter(str_detect(Title, ":")) |>
  mutate(KeyPhrase = str_extract(Title, ".+(?=:)")) |>
  filter(!is.na(KeyPhrase)) |>
  group_by(KeyPhrase) |>
  summarize(KeyPhraseTotal = n()) |>
  select(KeyPhrase, KeyPhraseTotal) |>
  arrange(desc(KeyPhraseTotal))

as_tibble(KeyPhrasesinTitle)

# A tibble: 265 × 2
   KeyPhrase              KeyPhraseTotal
   <chr>                           <int>
 1 A Nation Challenged                45
 2 THE 2000 CAMPAIGN                  32
 3 POLITICS                           21
 4 THREATS AND RESPONSES              20
 5 A NATION AT WAR                    17
 6 CRISIS IN THE BALKANS              15
 7 TESTING OF A PRESIDENT             15
 8 AFTER THE WAR                       9
 9 AFTEREFFECTS                        8
10 THE STRUGGLE FOR IRAQ               7
# ℹ 255 more rows
…
